################################################################
# pp.plone-nimbudocs
# (C) 2013,  ZOPYX Limited, D-72074 Tuebingen, Germany
################################################################

